{
    "baseUrl": "https://todoist.com",
    "integrationFolder": "cypress/integration/todoist",
    "env": {
        "allureResultsPath": "allure-results"
    },
    "reporter": "cypress-multi-reporters",
    "reporterOptions": {
        "configFile": "reporter-config.json"
    },
    "videoCompression": false,
    "blockHosts": []
}
